ID,Title,Content,Excerpt,Date,"Post Type",Permalink,_encloseme,_thumbnail_id,_yoast_wpseo_content_score,_yoast_wpseo_primary_category,Categories,Tags,"Image URL","Images Filename","Images Path","Images ID","Images Title","Images Caption","Images Description","Images Alt Text","Attachment URL","Attachments Filename","Attachments Path","Attachments ID","Attachments Title","Attachments Caption","Attachments Description","Attachments Alt Text",Status,"Author ID","Author Username","Author Email","Author First Name","Author Last Name",Slug,Format,Template,Parent,"Parent Slug",Order,"Comment Status","Ping Status","Post Modified Date"
1,"Hello world!","<!-- wp:paragraph -->
<p>Welcome to WordPress. This is your first post. Edit or delete it, then start writing!</p>
<!-- /wp:paragraph -->",,"28 April 2020",post,http://www.staging.alccommercial.com.au/?p=1,,,,,Uncategorised,,,,,,,,,,,,,,,,,,publish,1,boni,boni@chillidee.com.au,,,hello-world,,,0,0,0,open,open,"28 April 2020"
52,"How To Grow Your Small Business Online","<!-- wp:heading -->
<h2>How To Grow Your Small Business Online</h2>
<!-- /wp:heading -->

<!-- wp:paragraph -->
<p>The fact is, with everyone social isolating in their homes, with the internet their means of connection with the outside world. Many people are now relying on online shopping every day, increasing the demand for a number of products and services.</p>
<!-- /wp:paragraph -->

<!-- wp:paragraph -->
<p>So what does this mean for your business? And how can you grow your small business online?</p>
<!-- /wp:paragraph -->

<!-- wp:heading {""level"":3} -->
<h3>How Have Things Changed?</h3>
<!-- /wp:heading -->

<!-- wp:paragraph -->
<p>In order to establish how you can grow your small business online, it is important to look at how things have changed since the start of the pandemic:</p>
<!-- /wp:paragraph -->

<!-- wp:list -->
<ul><li><strong>More people online</strong>.&nbsp;<strong><a href=""https://www.abc.net.au/news/2020-04-06/coronavirus-covid-19-self-isolation-online-shopping/12122834"" target=""_blank"" rel=""noreferrer noopener"">Australia Post</a></strong>&nbsp;has reported record days of parcels during the COVID panic. Many people are now shopping from home and staying away from the shops.</li><li><strong>People moving to the competition</strong>. With an increased demand for particular products, consumers are moving away from well-known, recognised businesses who have been unable to keep up with demand. Instead, they are placing their business elsewhere and giving competitors more of a chance.</li><li><strong>Everyone working from home</strong>. Another huge change is that people are no longer working from traditional offices.</li></ul>
<!-- /wp:list -->

<!-- wp:image {""id"":54,""sizeSlug"":""full""} -->
<figure class=""wp-block-image size-full""><img src=""http://www.staging.alccommercial.com.au/wp-content/uploads/2020/04/online-business-success.jpg"" alt=""Illustration of a rocket launching as a metaphor for a start up business launching"" class=""wp-image-54""/></figure>
<!-- /wp:image -->

<!-- wp:heading -->
<h2>How To Grow Your Small Business Online</h2>
<!-- /wp:heading -->

<!-- wp:paragraph -->
<p>While you may have taken a hit when COVID-19 first sent the world into chaos, now is your chance to take a deep breath and pivot.</p>
<!-- /wp:paragraph -->

<!-- wp:paragraph -->
<p>What does this mean?</p>
<!-- /wp:paragraph -->

<!-- wp:heading {""level"":3} -->
<h3>1. Re-assess your current plan</h3>
<!-- /wp:heading -->

<!-- wp:paragraph -->
<p>Take a look at your business and whether it still holds value in today’s society. If not, how can you change that? For example, if you run sports classes for kids, these obviously can’t go ahead at the moment. But can you run them virtually? This is the perfect chance for you to change your offering to suit the current climate.</p>
<!-- /wp:paragraph -->

<!-- wp:heading {""level"":3} -->
<h3>2. Understand your platform</h3>
<!-- /wp:heading -->

<!-- wp:paragraph -->
<p>Do you have a website? While it may not have seemed very important in the past, now it is more so than ever. When looking at how to grow your small business, you need to ensure you have somewhere professional to send your customers. It could be worth outsourcing this task to ensure it is done correctly. It will save you plenty of time and money in the future.</p>
<!-- /wp:paragraph -->

<!-- wp:heading {""level"":3} -->
<h3>3. Set up social channels</h3>
<!-- /wp:heading -->

<!-- wp:paragraph -->
<p>Another important avenue to explore in these changing times. Do you have social channels for your business? Each channel has its pros and cons, so it is worth taking a look at your target audience and finding where they hang out. You are better off picking one or two platforms and doing them properly, rather than spreading yourself too thin across them all.</p>
<!-- /wp:paragraph -->

<!-- wp:heading {""level"":3} -->
<h3>4.&nbsp;<a href=""https://www.cmo.com.au/article/677956/customer-loyalty-time-covid-19/"" target=""_blank"" rel=""noreferrer noopener"">Build brand loyalty</a></h3>
<!-- /wp:heading -->

<!-- wp:paragraph -->
<p>This step is perhaps the most important in this current time we are in. People are looking for connection and to build trust in a brand. When there is so much going on in the world, they want to be able to shop with a brand that has their best interests at heart. You can cater to this by making the experience as personal as possible. Build your brand on your socials and show off a lot of the behind-the-scenes of what is going on with you.&nbsp;</p>
<!-- /wp:paragraph -->

<!-- wp:heading {""level"":3} -->
<h3>5. Check your processes</h3>
<!-- /wp:heading -->

<!-- wp:paragraph -->
<p>Once you have set yourself up online it is important to check all your processes are in place and working. Get people to test your site and make sure it all works, as this is one of the most obvious and easiest ways to lose a potential sale.</p>
<!-- /wp:paragraph -->

<!-- wp:image {""id"":53,""sizeSlug"":""large""} -->
<figure class=""wp-block-image size-large""><img src=""http://www.staging.alccommercial.com.au/wp-content/uploads/2020/04/organic-growth.jpg"" alt=""Organic Business Growth - PLant rrow growing upwards "" class=""wp-image-53""/></figure>
<!-- /wp:image -->

<!-- wp:heading {""level"":3} -->
<h3>Embrace The Changes</h3>
<!-- /wp:heading -->

<!-- wp:paragraph -->
<p>The most important thing you can do when it comes to learning how to grow your small business is to embrace the changes. It is the businesses who stand their ground and refuse to adapt who end up being left behind.</p>
<!-- /wp:paragraph -->

<!-- wp:paragraph -->
<p>Shake off any losses from the past few months and set into motion some wins. Look at where your business is, how it currently caters to people and how this can all be changed to drive customers through to you.</p>
<!-- /wp:paragraph -->

<!-- wp:paragraph -->
<p>While (we can only hope) this pandemic will come to an end, the business world will have changed for the long-term. Any changes you implement now will stick. See your small business on the path to success in these uncertain times. Don’t be afraid to dive in and give it a go.</p>
<!-- /wp:paragraph -->

<!-- wp:heading {""level"":3} -->
<h3>Look For Help</h3>
<!-- /wp:heading -->

<!-- wp:paragraph -->
<p>Do you need some help learning how to grow your small business? You are not alone. It is a hard road in hard times, but it isn’t impossible. In fact, the online world is actually levelling the playing field, and with a bit of direction you can get a foot up on the competition. If you are after some more advice, be sure to speak to the experts at&nbsp;<strong><a href=""https://www.alccommercial.com.au/enquire/"" target=""_blank"" rel=""noreferrer noopener"">ALC Commercial</a></strong>&nbsp;today.</p>
<!-- /wp:paragraph -->","We are currently living in very uncertain times. The global pandemic has changed everything about our lives – including the way we do business. It has resulted in many businesses closing and jobs being lost. However, it has also forced small businesses to rethink their strategies. While many see the current world situation as a problem, it can also be an opportunity. In this blog, we reveal how to grow your small business online.","28 April 2020",post,http://www.staging.alccommercial.com.au/?p=52,1,55,90,1,Uncategorised,,http://www.staging.alccommercial.com.au/wp-content/uploads/2020/04/how-to-grow-your-business-organically.jpg||http://www.staging.alccommercial.com.au/wp-content/uploads/2020/04/online-business-success.jpg||http://www.staging.alccommercial.com.au/wp-content/uploads/2020/04/organic-growth.jpg,how-to-grow-your-business-organically.jpg||online-business-success.jpg||organic-growth.jpg,/home/admin/web/staging.alccommercial.com.au/public_html/wp-content/uploads/2020/04/how-to-grow-your-business-organically.jpg||/home/admin/web/staging.alccommercial.com.au/public_html/wp-content/uploads/2020/04/online-business-success.jpg||/home/admin/web/staging.alccommercial.com.au/public_html/wp-content/uploads/2020/04/organic-growth.jpg,55||54||53,"How to grow your business organically||online-business-success||organic-growth",,,"How to grow your business organically||||",,,,,,,,,publish,2,diane,diane@chillidee.com.au,Diane,Challis,how-to-grow-your-small-business-online,,,0,0,0,open,open,"28 April 2020"
